…
``` r
  prob3_func_2 <- function(data) {
    data %>%
      mutate(prop_test = map2(unsolved_homicides, total_homicides, ~ prop.test(.x, .y) %>% broom::tidy())) %>%
      unnest(prop_test) %>%
      select(city, proportion_unsolved = estimate, lower_bound = conf.low, upper_bound = conf.high) %>% 
      mutate(confidence_interval = paste("(", lower_bound, ", ", upper_bound, ")"))
  }
  
  city_results = prob3_func_2(total_homicides_per_city)
  city_results %>% select(-lower_bound, -upper_bound)
```

    ## # A tibble: 50 × 3
    ##    city        proportion_unsolved confidence_interval                       
    ##    <chr>                     <dbl> <chr>                                     
    ##  1 Albuquerque               0.386 ( 0.337260384254284 ,  0.437576606555521 )
    ##  2 Atlanta                   0.383 ( 0.352811897036302 ,  0.414821883953622 )
    ##  3 Baltimore                 0.646 ( 0.627562457662644 ,  0.663159860401662 )
    ##  4 Baton Rouge               0.462 ( 0.414198741860307 ,  0.511023960018796 )
    ##  5 Birmingham                0.434 ( 0.399188948632167 ,  0.468955748189036 )
    ##  6 Boston                    0.505 ( 0.464621930200304 ,  0.545088051772638 )
    ##  7 Buffalo                   0.612 ( 0.568798964634228 ,  0.654087939253532 )
    ##  8 Charlotte                 0.300 ( 0.26608198188312 ,  0.335899860867845 ) 
    ##  9 Chicago                   0.736 ( 0.723995888425454 ,  0.747399787306647 )
    ## 10 Cincinnati                0.445 ( 0.407960574220688 ,  0.483143880618937 )
    ## # ℹ 40 more rows
…
